[gd_scene format=3 uid="uid://bfga0bsghsv2r"]

[node name="GameOver" type="CanvasLayer"]

[node name="Panel" type="Panel" parent="."]
anchors_preset = 14
anchor_top = 0.5
anchor_right = 1.0
anchor_bottom = 0.5
offset_bottom = 100.0
grow_horizontal = 2
grow_vertical = 2

[node name="Label" type="Label" parent="."]
anchors_preset = 8
anchor_left = 0.5
anchor_top = 0.5
anchor_right = 0.5
anchor_bottom = 0.5
offset_left = -46.0
offset_top = 36.5
offset_right = 46.0
offset_bottom = 59.5
grow_horizontal = 2
grow_vertical = 2
text = "GAME OVER"
